Mini-project instructions
…
    CV....         
 Length:8078       
 Class :character  
 Mode  :character  

The dataframe contains 21 columns and 8078 rows of data.

5.2 Exploring column classes and distinct cases

Code

cotton_area_harvested %>%
  diagnose()

# A tibble: 21 × 6
   variables        types     missing_count missing_percent unique_count uniqu…¹
   <chr>            <chr>             <int>           <dbl>        <int>   <dbl>
 1 Program          character             0               0            2 2.48e-4
 2 Year             integer               0               0           78 9.66e-3
 3 Period           character             0               0            1 1.24e-4
 4 Week.Ending      logical            8078             100            1 1.24e-4
 5 Geo.Level        character             0               0            1 1.24e-4
 6 State            character             0               0            1 1.24e-4
 7 State.ANSI       integer               0               0            1 1.24e-4
 8 Ag.District      character             0               0           10 1.24e-3
 9 Ag.District.Code integer               0               0           10 1.24e-3
10 County           character             0               0          154 1.91e-2
# … with 11 more rows, and abbreviated variable name ¹​unique_rate
…
